{
    "meta": {
        "default": {
            "charset":"utf-8",
            "httpequiv":"X-UA-Compatible",
            "compatibility":"IE=edge",
            "name":"viewport",
            "viewport-properties":"width=device-width, initial-scale=1",
            "domain":"'c9users.io'"
        }
    },
    "script": {
        "MainPage.php": [
            {
                "name":"jquery",
                "version":"3.1.1"
            },
            {
                "name":"bootstrap",
                "version":"3.3.7"
            },
            {
                "name":"bloodhound",
                "version":"1.0"
            }
        ],
        "EventPage.php": [
            {
                "name":"jquery",
                "version":"3.1.1"
            },
            {
                "name":"bootstrap",
                "version":"3.3.7"
            },
            {
                "name":"bloodhound",
                "version":"1.0"
            }
        ]
    },
    "style": {
        "MainPage.php": [
            {
                "version":"1.0",
                "name":"page"
            },
            {
                "version":"3.3.7",
                "name":"bootstrap"
            }
        ],
        "EventPage.php": [
            {
                "version":"1.0",
                "name":"page"
            },
            {
                "version":"3.3.7",
                "name":"bootstrap"
            }
        ]
    }
}