{
    "script": {
        "jquery": {
            "3.1.1": {
                "source":"https://ajax.googleapis.com/ajax/libs/jquery/3.1.1/jquery.min.js",
                "type":"url"
            }
        },
        "bootstrap": {
            "3.3.7": {
                "source":"https://maxcdn.bootstrapcdn.com/bootstrap/3.3.7/js/bootstrap.min.js",
                "type":"url"
            }
        },
        "bloodhound": {
            "1.0": {
                "source":"js/bloodhound.js",
                "type":"path"
            }
        }
    }
}